…
``` r
boot_straps
## # A tibble: 5,000 × 3
##    strap_number strap_sample       bootstrap_results$r2 $logbetainter
##           <int> <list>                            <dbl>         <dbl>
##  1            1 <tibble [365 × 6]>                0.898         -5.44
##  2            2 <tibble [365 × 6]>                0.928        NaN   
##  3            3 <tibble [365 × 6]>                0.925        NaN   
##  4            4 <tibble [365 × 6]>                0.931        NaN   
##  5            5 <tibble [365 × 6]>                0.915        NaN   
##  6            6 <tibble [365 × 6]>                0.918         -7.18
##  7            7 <tibble [365 × 6]>                0.922        NaN   
##  8            8 <tibble [365 × 6]>                0.910         -6.65
##  9            9 <tibble [365 × 6]>                0.910         -6.21
## 10           10 <tibble [365 × 6]>                0.939        NaN   
## # ℹ 4,990 more rows
```
…
